<svg width="135" height="64" viewBox="0 0 135 64" fill="none" xmlns="http://www.w3.org/2000/svg">
<g clip-path="url(#clip0)">
<path d="M51.9403 60.4791C51.6758 60.0729 51.5436 59.3959 51.5436 58.403V45.1336C51.5436 43.7796 51.6317 42.6512 51.8521 41.8388C52.0725 41.0264 52.4692 40.2591 52.9982 39.537L53.4831 38.9051L52.9982 38.3635H45.8133L45.4607 39.537L46.166 39.7175C46.9594 39.898 47.5324 40.214 47.7969 40.5751C48.1054 40.9813 48.2817 41.6131 48.2817 42.5158L37.2179 54.9277V45.0885C37.2179 43.7344 37.3061 42.6512 37.5265 41.8388C37.7469 41.0264 38.1436 40.214 38.6725 39.4918L39.1133 38.86L38.6725 38.3184H31.4877L31.091 39.4918L31.8844 39.6724C32.7219 39.898 33.2508 40.214 33.5153 40.6202C33.7798 41.0264 33.912 41.7485 33.912 42.7866V58.087C33.912 59.1251 33.7798 59.8473 33.5153 60.2535C33.2508 60.6597 32.6778 60.9756 31.8403 61.2464L31.0469 61.427L31.4436 62.6004H39.51L39.8186 61.5172L39.1574 61.3367C38.364 61.0659 37.835 60.75 37.5706 60.3889C37.3061 59.9827 37.1738 59.3057 37.1738 58.3579V57.6808L48.2377 45.269V58.1322C48.2377 59.1703 48.1054 59.8924 47.841 60.2986C47.5765 60.7048 47.0035 61.0208 46.1219 61.2464L45.4166 61.427L45.7692 62.6004H53.7916L54.1442 61.5172L53.439 61.3367C52.7337 61.2013 52.2048 60.8854 51.9403 60.4791Z" fill="#EE2F2F"/>
<path d="M104.835 60.4791C104.57 60.0729 104.438 59.3959 104.438 58.403V45.1336C104.438 43.7796 104.526 42.6512 104.747 41.8388C104.967 41.0264 105.364 40.2591 105.893 39.537L106.378 38.9051L105.893 38.3635H98.708L98.3553 39.537L99.0606 39.7175C99.854 39.898 100.427 40.214 100.692 40.5751C101 40.9813 101.176 41.6131 101.176 42.5158L90.1126 54.9277V45.0885C90.1126 43.7344 90.2007 42.6512 90.4211 41.8388C90.6415 41.0264 91.0382 40.214 91.5672 39.4918L92.008 38.86L91.5672 38.3184H84.3382L83.9415 39.4918L84.735 39.6724C85.5725 39.898 86.1014 40.214 86.3659 40.6202C86.6304 41.0264 86.7626 41.7485 86.7626 42.7866V58.087C86.7626 59.1251 86.6304 59.8473 86.3659 60.2535C86.1014 60.6597 85.5284 60.9756 84.6909 61.2464L83.8975 61.427L84.2942 62.6004H92.3606L92.6692 61.5172L92.008 61.3367C91.2146 61.0659 90.6856 60.75 90.4211 60.3889C90.1567 59.9827 90.0244 59.3057 90.0244 58.3579V57.6808L101.088 45.269V58.1322C101.088 59.1703 100.956 59.8924 100.692 60.2986C100.427 60.7048 99.854 61.0208 98.9724 61.2464L98.2672 61.427L98.6198 62.6004H106.642L106.995 61.5172L106.29 61.3367C105.628 61.2013 105.099 60.8854 104.835 60.4791Z" fill="#EE2F2F"/>
<path d="M133.795 61.3823C133.001 61.1115 132.472 60.7955 132.164 60.4345C131.899 60.0283 131.767 59.3512 131.767 58.4034V45.0889C131.767 43.78 131.899 42.6968 132.12 41.8392C132.34 40.9817 132.737 40.2144 133.266 39.4471L133.795 38.8153L133.266 38.2737H126.125L125.728 39.4471L126.434 39.6277C127.271 39.8533 127.844 40.1693 128.153 40.6206C128.461 41.0268 128.593 41.749 128.593 42.7871V49.2412H117.838V45.0438C117.838 43.6897 117.926 42.6065 118.147 41.749C118.367 40.8914 118.764 40.1241 119.293 39.402L119.734 38.7701L119.293 38.2285H112.064L111.667 39.402L112.461 39.5825C113.298 39.8082 113.827 40.1241 114.091 40.5304C114.356 40.9366 114.488 41.6587 114.488 42.7419V58.0875C114.488 59.1256 114.356 59.8477 114.091 60.2539C113.827 60.6601 113.254 60.9761 112.416 61.2469L111.623 61.4274L112.02 62.6009H120.13L120.439 61.5177L119.778 61.3371C118.984 61.0663 118.455 60.7504 118.191 60.3893C117.926 59.9831 117.794 59.3061 117.794 58.3583V51.2723H128.549V58.1326C128.549 59.1707 128.417 59.8929 128.153 60.2991C127.888 60.7053 127.315 61.0212 126.434 61.292L125.728 61.4725L126.125 62.646H134.147L134.5 61.5628L133.795 61.3823Z" fill="#EE2F2F"/>
<path d="M77.2417 60.4342C76.9772 60.028 76.845 59.351 76.845 58.4032V45.0887C76.845 43.7347 76.9331 42.6514 77.1535 41.7939C77.3739 40.9363 77.7706 40.1691 78.2996 39.4469L78.7403 38.815L78.2996 38.2734H63.5772L63.1364 39.4469L63.8858 39.5823C65.6489 39.8983 66.3983 40.9815 66.266 42.7868C65.8693 47.1197 65.6048 50.5499 65.0318 53.0774C63.6213 59.4413 61.6377 60.2537 61.6377 60.2537C61.9463 59.1254 61.9904 58.3581 61.8581 57.8165C61.3292 57.2297 60.668 57.0041 60.0509 57.0041C58.5081 57.0041 57.2739 58.2678 57.2739 59.8475C57.2739 60.6599 57.5825 61.3821 58.1114 61.8785C58.1996 61.9688 58.2877 62.0591 58.3759 62.1493C59.0371 62.7361 59.8305 63.052 60.8002 63.052C62.1667 63.052 63.3127 62.4653 64.2384 61.2918C65.1641 60.1183 66.0015 57.9519 66.7068 54.7925C67.4121 51.6331 67.9851 47.21 68.47 41.5231C68.514 40.9815 68.6904 40.6204 69.043 40.4399C69.3956 40.2593 69.8805 40.1691 70.5417 40.1691H71.4673C72.3048 40.1691 72.8779 40.3496 73.1423 40.7107C73.4068 41.0717 73.539 41.7488 73.539 42.7868V58.1324C73.539 59.1705 73.4068 59.8926 73.1423 60.2988C72.8779 60.705 72.3048 61.021 71.4673 61.2918L70.718 61.4723L71.1147 62.6458H79.1811L79.4897 61.5626L78.8285 61.3821C78.0792 61.1113 77.5502 60.7953 77.2417 60.4342Z" fill="#EE2F2F"/>
<path d="M24.656 42.787C23.2014 41.6136 21.3941 40.8463 19.1902 40.4401C18.3968 40.2595 17.5152 40.1693 16.6336 40.1241C16.6336 40.1241 16.1928 40.1241 15.9724 40.1241C16.0606 39.3117 16.1928 38.6347 16.4132 38.0931C16.5895 37.5515 16.8981 36.9648 17.2948 36.2426L17.6915 35.6559L17.2948 35.1143H11.0797L10.727 36.2877L11.4323 36.5134C11.8731 36.6488 12.1816 37.0099 12.3579 37.5515C12.4902 38.1382 12.5783 38.9958 12.6224 40.079C12.3139 40.079 12.0494 40.079 11.7408 40.1241C9.71321 40.2595 7.90597 40.6657 6.31913 41.3427C4.51189 42.11 3.10137 43.2384 2.08755 44.6375C1.07374 46.0818 0.588867 47.7969 0.588867 49.7377C0.588867 51.7236 1.11781 53.3935 2.13163 54.7476C3.14545 56.1016 4.42374 57.0945 5.9665 57.7264C7.50926 58.3583 9.71321 58.7193 11.3001 58.5388L10.727 57.0043C8.69939 56.6432 7.15663 55.8759 6.09874 54.6573C4.95268 53.3033 4.33558 51.5882 4.33558 49.512C4.33558 47.1199 4.99676 45.3145 6.31913 44.0508C7.6415 42.787 9.40466 42.0649 11.5645 41.9746C11.6086 41.9746 11.6527 41.9746 11.6968 41.9746C12.0053 41.9746 12.2257 42.0198 12.3579 42.1552C12.4902 42.2906 12.5783 42.5162 12.5783 42.8322V59.5318C12.5783 60.5698 12.4461 61.2468 12.1816 61.6531C11.9172 62.0593 11.3441 62.3752 10.5066 62.646L9.71321 62.8265L10.1099 64H18.1764L18.5731 62.9168L17.8678 62.7363C17.0303 62.4655 16.5014 62.1495 16.2369 61.7885C15.9724 61.3822 15.8402 60.7052 15.8402 59.7574V42.8322C15.8402 42.5162 15.9283 42.3357 16.0606 42.1552C16.1928 42.0198 16.4573 41.9295 16.854 41.9295C19.0139 42.0198 20.777 42.7419 22.0994 44.0057C23.4218 45.2694 24.0829 47.1199 24.0829 49.4669C24.0829 51.543 23.5099 53.2581 22.3198 54.6121C21.2619 55.8308 19.7191 56.598 17.6915 56.9591L17.1185 58.4937C18.7053 58.6742 20.9093 58.3131 22.452 57.6813C23.9948 57.0494 25.2731 56.0564 26.2869 54.7024C27.3007 53.3484 27.8297 51.6784 27.8297 49.6925C27.8297 48.7447 27.6974 47.8872 27.477 47.0748C27.0362 45.4048 26.0665 43.9605 24.656 42.787Z" fill="#EE2F2F"/>
<path d="M62.4308 7.62722C60.6236 5.09972 58.5078 3.3395 55.4222 1.94034C51.4111 0.134983 47.3999 -0.406624 43.3005 0.270385C39.9505 0.811993 36.6887 2.34655 33.5591 4.78378L35.3222 6.81481C36.9972 5.59619 38.8926 4.69352 40.9643 4.10677C43.2124 3.4749 45.2841 3.38463 47.1354 3.79084C51.367 4.55811 53.2183 7.67236 53.8354 8.80071C52.9097 7.9883 51.3229 7.22102 49.7361 6.99535C48.9426 7.76263 48.2815 8.66531 47.8407 9.79365C47.1354 11.4636 46.8268 13.3141 47.0913 14.8938C47.8407 19.678 52.2045 22.9276 56.8328 22.1604C63.1801 21.032 66.3979 13.269 62.4308 7.62722Z" fill="#EE2F2F"/>
<path d="M86.6302 1.94062C83.5006 3.33977 81.3848 5.05486 79.6216 7.6275C75.6545 13.2692 78.8723 21.0323 85.1756 22.1155C89.8039 22.9279 94.1677 19.6783 94.917 14.8489C95.1815 13.2692 94.8729 11.4188 94.1677 9.7488C93.7269 8.66558 93.0657 7.71777 92.2723 6.95049C90.6854 7.17616 89.1427 7.94344 88.1729 8.75585C88.79 7.58237 90.6414 4.51325 94.8729 3.74598C96.7242 3.33977 98.796 3.43004 101.044 4.06191C103.16 4.64866 105.055 5.59647 106.686 6.76995L108.449 4.73892C105.32 2.30169 102.058 0.767133 98.7078 0.225526C94.6525 -0.40635 90.6413 0.180392 86.6302 1.94062Z" fill="#EE2F2F"/>
</g>
<defs>
<clipPath id="clip0">
<rect width="134" height="64" fill="white" transform="translate(0.5)"/>
</clipPath>
</defs>
</svg>
