<svg width="110" height="102" viewBox="0 0 110 102" fill="none" xmlns="http://www.w3.org/2000/svg">
<path d="M31 1H109V79H31V1Z" stroke="white" stroke-width="2"/>
<path d="M50 16H93V59" stroke="white" stroke-width="2"/>
<path d="M93 16L1 108" stroke="white" stroke-width="2"/>
</svg>
