<svg width="63" height="48" viewBox="0 0 63 48" fill="none" xmlns="http://www.w3.org/2000/svg">
<line x1="46.7867" y1="1.20711" x2="0.707048" y2="47.2868" stroke="#EE2F2F" stroke-width="2"/>
<line x1="62.2071" y1="5.1407" x2="32.9859" y2="34.3619" stroke="#EE2F2F" stroke-width="2"/>
</svg>
