<svg xmlns="http://www.w3.org/2000/svg" xmlns:xlink="http://www.w3.org/1999/xlink">
    <symbol id="arrow" viewBox="0 0 22 21" xmlns="http://www.w3.org/2000/svg">
        <path d="M8.5 1H20.5V13" stroke-width="2"/>
        <path d="M19.5 2L1.5 20" stroke-width="2"/>
    </symbol>
    <symbol id="close" xmlns="http://www.w3.org/2000/svg" viewBox="0 0 409.806 409.806">
        <path d="M228.929,205.01L404.596,29.343c6.78-6.548,6.968-17.352,0.42-24.132c-6.548-6.78-17.352-6.968-24.132-0.42    c-0.142,0.137-0.282,0.277-0.42,0.42L204.796,180.878L29.129,5.21c-6.78-6.548-17.584-6.36-24.132,0.42    c-6.388,6.614-6.388,17.099,0,23.713L180.664,205.01L4.997,380.677c-6.663,6.664-6.663,17.468,0,24.132    c6.664,6.662,17.468,6.662,24.132,0l175.667-175.667l175.667,175.667c6.78,6.548,17.584,6.36,24.132-0.42    c6.387-6.614,6.387-17.099,0-23.712L228.929,205.01z"/>
    </symbol>
    <symbol id="facebook" viewBox="0 0 10 18" xmlns="http://www.w3.org/2000/svg">
        <path d="M3.02658 17.2094V9.86731H0.5V6.94973H3.02658V4.64131C3.02658 3.42298 3.37659 2.48251 4.07659 1.81991C4.7766 1.13593 5.70629 0.793945 6.86568 0.793945C7.80631 0.793945 8.57194 0.836694 9.16257 0.922191V3.51916H7.58756C6.99693 3.51916 6.59224 3.64741 6.37349 3.9039C6.19848 4.11764 6.11098 4.45963 6.11098 4.92986V6.94973H8.90007L8.50632 9.86731H6.11098V17.2094H3.02658Z" />
    </symbol>
    <symbol id="ok" viewBox="0 0 10 17" xmlns="http://www.w3.org/2000/svg">
        <path d="M8.59375 10.9375C7.90625 11.375 6.96875 11.6562 5.78125 11.7812L8.8125 14.8125C9.08333 15.0833 9.15625 15.3854 9.03125 15.7188C8.90625 16.0729 8.66667 16.3125 8.3125 16.4375C7.97917 16.5833 7.67708 16.5208 7.40625 16.25L5 13.8438L2.625 16.2188C2.35417 16.4896 2.04167 16.5625 1.6875 16.4375C1.33333 16.3125 1.09375 16.0729 0.96875 15.7188C0.84375 15.3854 0.927083 15.0833 1.21875 14.8125L4.25 11.7812C3.02083 11.6562 2.07292 11.375 1.40625 10.9375C0.84375 10.5625 0.489583 10.2708 0.34375 10.0625C0.15625 9.79167 0.15625 9.46875 0.34375 9.09375C0.46875 8.82292 0.677083 8.65625 0.96875 8.59375C1.30208 8.51042 1.65625 8.61458 2.03125 8.90625L2.40625 9.15625C2.71875 9.32292 3.05208 9.46875 3.40625 9.59375C3.92708 9.73958 4.45833 9.8125 5 9.8125C5.54167 9.8125 6.07292 9.73958 6.59375 9.59375C6.94792 9.46875 7.28125 9.32292 7.59375 9.15625L7.96875 8.90625C8.34375 8.61458 8.70833 8.51042 9.0625 8.59375C9.33333 8.65625 9.54167 8.82292 9.6875 9.09375C9.85417 9.46875 9.84375 9.79167 9.65625 10.0625C9.51042 10.2708 9.15625 10.5625 8.59375 10.9375ZM0.9375 4.5625C0.9375 3.8125 1.11458 3.13542 1.46875 2.53125C1.84375 1.90625 2.34375 1.41667 2.96875 1.0625C3.59375 0.6875 4.27083 0.5 5 0.5C5.72917 0.5 6.40625 0.6875 7.03125 1.0625C7.65625 1.41667 8.14583 1.90625 8.5 2.53125C8.875 3.13542 9.0625 3.8125 9.0625 4.5625C9.0625 5.29167 8.875 5.96875 8.5 6.59375C8.14583 7.19792 7.65625 7.6875 7.03125 8.0625C6.40625 8.41667 5.72917 8.59375 5 8.59375C4.27083 8.59375 3.59375 8.41667 2.96875 8.0625C2.34375 7.6875 1.84375 7.19792 1.46875 6.59375C1.11458 5.96875 0.9375 5.29167 0.9375 4.5625ZM3 4.5625C3 5.10417 3.19792 5.57292 3.59375 5.96875C3.98958 6.34375 4.45833 6.53125 5 6.53125C5.54167 6.53125 6.01042 6.34375 6.40625 5.96875C6.80208 5.57292 7 5.10417 7 4.5625C7 4 6.80208 3.53125 6.40625 3.15625C6.01042 2.76042 5.54167 2.5625 5 2.5625C4.45833 2.5625 3.98958 2.76042 3.59375 3.15625C3.19792 3.53125 3 4 3 4.5625Z" />
    </symbol>
    <symbol id="quotes" viewBox="0 0 23 17" xmlns="http://www.w3.org/2000/svg">
        <path fill-rule="evenodd" clip-rule="evenodd" d="M12.6991 7.69916C12.13 9.43233 12.0702 10.9084 12.4418 12.5369C13.2959 16.1454 17.6953 17.65 20.5195 15.5235C22.5559 13.953 22.8364 11.0454 21.1405 9.02833C20.5868 8.35552 19.7085 7.81401 18.7573 7.49557C18.1278 7.26615 17.5096 7.20569 16.8981 7.2466C16.4016 7.96057 16.1286 8.86905 16.1199 9.53003C15.8836 8.87866 15.2863 7.02181 16.542 5.05845C17.0623 4.17415 17.8694 3.38024 18.9655 2.71053C19.9774 2.09492 21.0543 1.66311 22.1796 1.43267L21.9966 0C19.8278 0.372977 17.9825 1.12288 16.5142 2.26455C14.7115 3.65648 13.4446 5.45089 12.6991 7.69916ZM0.741499 7.69927C0.172378 9.43245 0.112604 10.9085 0.484129 12.5371C1.33828 16.1455 5.73765 17.6501 8.56188 15.5236C10.5983 13.9531 10.8788 11.0455 9.18284 9.02844C8.6292 8.35563 7.75087 7.81412 6.79964 7.49568C6.1702 7.26627 5.55199 7.2058 4.94052 7.24671C4.44401 7.96068 4.17101 8.86917 4.16232 9.53014C3.92597 8.87877 3.32868 7.02192 4.58443 5.05856C5.10471 4.17426 5.91178 3.38036 7.00787 2.71064C8.01982 2.09503 9.09665 1.66322 10.222 1.43278L10.0389 0.000111781C7.87022 0.373089 6.02488 1.12299 4.55656 2.26466C2.75392 3.65659 1.48694 5.451 0.741499 7.69927Z" />
    </symbol>
    <symbol id="reload" viewBox="0 0 512 512" xmlns="http://www.w3.org/2000/svg">
       <path d="m429.581 307.019a24.436 24.436 0 0 0 -32.3 12.284 154.821 154.821 0 0 1 -279.667 6.033l13.84 6.162a24.437 24.437 0 1 0 19.879-44.649l-64.315-28.634a24.437 24.437 0 0 0 -32.264 12.385l-28.635 64.313a24.437 24.437 0 1 0 44.649 19.879l3.266-7.335a203.681 203.681 0 0 0 181.966 112.188c1.181 0 2.368-.011 3.551-.031a203.669 203.669 0 0 0 182.315-120.292 24.438 24.438 0 0 0 -12.285-32.303z"/><path d="m473.5 144.823a24.438 24.438 0 0 0 -32.264 12.385l-3.266 7.335a203.685 203.685 0 0 0 -367.085 6.494 24.437 24.437 0 1 0 44.406 20.415 154.82 154.82 0 0 1 279.1-4.788l-13.84-6.162a24.438 24.438 0 0 0 -19.879 44.65l64.128 28.548.117.052a24.435 24.435 0 0 0 32.329-12.352l28.635-64.313a24.437 24.437 0 0 0 -12.381-32.264z"/>
    </symbol>
    <symbol id="rss" viewBox="0 0 16 16" xmlns="http://www.w3.org/2000/svg">
        <path d="M3.42629 11.5927C3.98411 11.5927 4.4763 12.0736 4.4763 12.6187C4.4763 13.1958 3.98411 13.6446 3.42629 13.6446C2.83566 13.6446 2.37628 13.1958 2.37628 12.6187C2.37628 12.0736 2.83566 11.5927 3.42629 11.5927ZM3.42629 10.0537C1.94972 10.0537 0.80127 11.208 0.80127 12.6187C0.80127 14.0614 1.94972 15.1836 3.42629 15.1836C4.87005 15.1836 6.05131 14.0614 6.05131 12.6187C6.05131 11.208 4.87005 10.0537 3.42629 10.0537ZM15.4686 14.7988C15.2717 7.16823 8.97165 1.04451 1.19502 0.852141C0.965333 0.82008 0.80127 1.01245 0.80127 1.23688V2.00635C0.80127 2.19872 0.965333 2.35902 1.16221 2.39109C8.11852 2.58345 13.6967 8.03388 13.8936 14.8309C13.9264 15.0233 14.0904 15.1836 14.2873 15.1836H15.0748C15.3045 15.1836 15.5014 15.0233 15.4686 14.7988ZM11.006 14.7988C10.8092 9.60489 6.51069 5.40485 1.19502 5.21248C0.965333 5.18042 0.80127 5.37279 0.80127 5.59722V6.36669C0.80127 6.55906 0.965333 6.71937 1.16221 6.75143C5.65756 6.9438 9.23415 10.4385 9.43103 14.8309C9.46384 15.0233 9.6279 15.2156 9.82478 15.2156H10.6123C10.842 15.1836 11.0389 15.0233 11.006 14.7988Z" />
    </symbol>
    <symbol id="search" viewBox="0 0 511.999 511.999" xmlns="http://www.w3.org/2000/svg">
        <g>
            <path d="M508.874,478.708L360.142,329.976c28.21-34.827,45.191-79.103,45.191-127.309c0-111.75-90.917-202.667-202.667-202.667
                S0,90.917,0,202.667s90.917,202.667,202.667,202.667c48.206,0,92.482-16.982,127.309-45.191l148.732,148.732
                c4.167,4.165,10.919,4.165,15.086,0l15.081-15.082C513.04,489.627,513.04,482.873,508.874,478.708z M202.667,362.667
                c-88.229,0-160-71.771-160-160s71.771-160,160-160s160,71.771,160,160S290.896,362.667,202.667,362.667z"/>
        </g>
    </symbol>
    <symbol id="star" viewBox="0 0 18 18" xmlns="http://www.w3.org/2000/svg">
        <path d="M17.0961 6.47091L12.1812 5.76398L9.95941 1.28674C9.58911 0.512486 8.44455 0.478822 8.04059 1.28674L5.85247 5.76398L0.903947 6.47091C0.0286981 6.60556 -0.307936 7.68279 0.331669 8.3224L3.86633 11.7897L3.02474 16.6709C2.89009 17.5462 3.83266 18.2194 4.60692 17.8155L9.01683 15.4927L13.3931 17.8155C14.1673 18.2194 15.1099 17.5462 14.9753 16.6709L14.1337 11.7897L17.6683 8.3224C18.3079 7.68279 17.9713 6.60556 17.0961 6.47091Z" />
    </symbol>
    <symbol id="telegram" viewBox="0 0 16 13" xmlns="http://www.w3.org/2000/svg">
        <path d="M15.6183 1.9683L13.3871 12.1638C13.2996 12.5272 13.1465 12.7623 12.9277 12.8692C12.7308 12.9547 12.4793 12.9119 12.173 12.7409L8.79329 10.3043L7.15265 11.8432C7.04328 11.9501 6.95578 12.0249 6.89015 12.0676C6.78078 12.1318 6.63859 12.1638 6.46359 12.1638L6.72609 8.79737L12.9933 3.25076C13.0808 3.18664 13.1027 3.1332 13.0589 3.09045C13.0371 3.02633 12.9714 3.00495 12.8621 3.02633C12.7746 3.02633 12.6761 3.05839 12.5668 3.12251L4.82295 7.89965L1.47605 6.87369C1.10417 6.76682 0.929167 6.60651 0.951042 6.39277C0.972917 6.17903 1.20261 5.98666 1.64011 5.81567L14.6668 0.91028C14.9949 0.803409 15.2574 0.846157 15.4543 1.03853C15.6512 1.20952 15.7058 1.51945 15.6183 1.9683Z" />
    </symbol>
    <symbol id="twitter" viewBox="0 0 17 14" xmlns="http://www.w3.org/2000/svg">
        <path d="M15.1118 3.66739C15.1337 3.75288 15.1447 3.89182 15.1447 4.08419C15.1447 5.62313 14.7618 7.10864 13.9962 8.54071C13.2087 10.0583 12.104 11.2659 10.6821 12.1636C9.12898 13.1682 7.34615 13.6705 5.33364 13.6705C3.40862 13.6705 1.64767 13.1682 0.0507812 12.1636C0.291408 12.185 0.564848 12.1957 0.871101 12.1957C2.46799 12.1957 3.90081 11.7148 5.16957 10.7529C4.40394 10.7529 3.72581 10.5392 3.13518 10.1117C2.56643 9.66286 2.17267 9.10713 1.95392 8.44453C2.17267 8.4659 2.38049 8.47659 2.57736 8.47659C2.88362 8.47659 3.18987 8.44453 3.49612 8.38041C2.70862 8.20941 2.05236 7.81399 1.52736 7.19414C1.00235 6.57428 0.73985 5.86893 0.73985 5.07809V5.01396C1.2211 5.29183 1.73517 5.44145 2.28205 5.46282C1.82267 5.14221 1.45079 4.7361 1.16642 4.24449C0.882038 3.75288 0.73985 3.21853 0.73985 2.64142C0.73985 2.04295 0.903913 1.47653 1.23204 0.942173C2.08517 1.98951 3.12424 2.82311 4.34925 3.44296C5.59614 4.06281 6.91959 4.4048 8.3196 4.46892C8.27585 4.21243 8.25397 3.95594 8.25397 3.69945C8.25397 3.10097 8.4071 2.54524 8.71335 2.03226C9.01961 1.4979 9.43524 1.08111 9.96024 0.781867C10.4852 0.482627 11.054 0.333008 11.6665 0.333008C12.1696 0.333008 12.629 0.429192 13.0446 0.62156C13.4821 0.813928 13.865 1.07042 14.1931 1.39103C14.9806 1.24141 15.7134 0.974235 16.3915 0.589499C16.129 1.38035 15.6259 2.0002 14.8822 2.44906C15.5384 2.36356 16.1947 2.18188 16.8509 1.90401C16.3697 2.58799 15.79 3.17578 15.1118 3.66739Z" />
    </symbol>
    <symbol id="vk" viewBox="0 0 19 12" xmlns="http://www.w3.org/2000/svg">
        <path d="M17.9333 1.57742C18.0646 1.10719 17.8677 0.87207 17.3427 0.87207H15.4068C15.013 0.87207 14.7396 1.05375 14.5864 1.41711L14.2583 2.05834C13.9958 2.61407 13.7224 3.12705 13.438 3.59728C13.0224 4.25989 12.6067 4.81562 12.1911 5.26447C11.9724 5.49959 11.7974 5.6599 11.6661 5.74539C11.5349 5.80952 11.4145 5.84158 11.3052 5.84158C11.2177 5.84158 11.1411 5.79883 11.0755 5.71333C11.0099 5.62784 10.977 5.4889 10.977 5.29654V1.57742C10.977 1.32093 10.9333 1.13925 10.8458 1.03238C10.7802 0.925506 10.6489 0.87207 10.452 0.87207H7.40045C7.2692 0.87207 7.14888 0.914819 7.03951 1.00032C6.952 1.08581 6.90825 1.19268 6.90825 1.32093C6.90825 1.4278 6.98482 1.57742 7.13794 1.76979C7.29107 1.94078 7.40045 2.10109 7.46607 2.25071C7.59732 2.5072 7.67389 2.80644 7.69576 3.14843V5.93776C7.69576 6.21563 7.66295 6.408 7.59732 6.51487C7.55357 6.60036 7.46607 6.64311 7.33482 6.64311C7.11607 6.64311 6.80982 6.408 6.41606 5.93776C6.02231 5.46753 5.62856 4.85836 5.2348 4.11027C4.7973 3.29805 4.42542 2.46445 4.11917 1.60948C4.03167 1.33162 3.92229 1.13925 3.79104 1.03238C3.68167 0.925506 3.50666 0.87207 3.26604 0.87207H1.33008C0.89258 0.87207 0.673828 1.05375 0.673828 1.41711C0.673828 1.63086 0.750391 2.0049 0.903518 2.53926C1.14414 3.20186 1.46133 3.9179 1.85509 4.68737C2.35822 5.69196 2.98166 6.68586 3.72542 7.66908C4.51292 8.78054 5.43168 9.6355 6.48169 10.234C7.5317 10.8325 8.57077 11.1317 9.5989 11.1317C10.1895 11.1317 10.5833 11.0676 10.7802 10.9393C10.9333 10.8325 10.9989 10.6508 10.977 10.3943V9.56069C10.977 9.04771 10.988 8.71641 11.0099 8.56679C11.0099 8.35305 11.0427 8.21412 11.1083 8.15C11.1958 8.08587 11.327 8.05381 11.502 8.05381C11.9177 8.05381 12.563 8.45992 13.438 9.27214C13.7005 9.52863 13.9958 9.84925 14.3239 10.234C14.6739 10.5973 14.9146 10.8218 15.0458 10.9073C15.2427 11.0569 15.4614 11.1317 15.7021 11.1317H17.638C17.9005 11.1317 18.0865 11.0676 18.1958 10.9393C18.3271 10.7897 18.3599 10.5867 18.2943 10.3302C18.0974 9.73169 17.2115 8.6416 15.6365 7.05991L15.3411 6.7393C15.2099 6.58968 15.1443 6.46143 15.1443 6.35456C15.1443 6.24769 15.2099 6.09807 15.3411 5.9057C15.363 5.88433 15.5708 5.59578 15.9646 5.04005C16.424 4.3347 16.8177 3.71484 17.1458 3.18049C17.6052 2.43239 17.8677 1.89803 17.9333 1.57742Z" />
    </symbol>
</svg>