<svg width="16" height="13" viewBox="0 0 16 13" fill="none" xmlns="http://www.w3.org/2000/svg">
<path d="M15.6183 1.9683L13.3871 12.1638C13.2996 12.5272 13.1465 12.7623 12.9277 12.8692C12.7308 12.9547 12.4793 12.9119 12.173 12.7409L8.79329 10.3043L7.15265 11.8432C7.04328 11.9501 6.95578 12.0249 6.89015 12.0676C6.78078 12.1318 6.63859 12.1638 6.46359 12.1638L6.72609 8.79737L12.9933 3.25076C13.0808 3.18664 13.1027 3.1332 13.0589 3.09045C13.0371 3.02633 12.9714 3.00495 12.8621 3.02633C12.7746 3.02633 12.6761 3.05839 12.5668 3.12251L4.82295 7.89965L1.47605 6.87369C1.10417 6.76682 0.929167 6.60651 0.951042 6.39277C0.972917 6.17903 1.20261 5.98666 1.64011 5.81567L14.6668 0.91028C14.9949 0.803409 15.2574 0.846157 15.4543 1.03853C15.6512 1.20952 15.7058 1.51945 15.6183 1.9683Z" fill="#D6D6D6"/>
</svg>
