<svg width="29" height="35" viewBox="0 0 29 35" fill="none" xmlns="http://www.w3.org/2000/svg">
<path d="M11.3458 6.239C11.0738 6.18233 10.8131 6.10867 10.5638 6.018C10.3258 5.92733 10.1105 5.83667 9.91781 5.746V5.1H14.2358V5.746C14.0998 5.83667 13.9185 5.92733 13.6918 6.018C13.4765 6.10867 13.2498 6.18233 13.0118 6.239L9.10181 17L7.41881 17.204L3.03281 6.239C2.80615 6.18233 2.57948 6.11433 2.35281 6.035C2.12615 5.94433 1.92781 5.848 1.75781 5.746V5.1H7.41881V5.746C7.22615 5.83667 7.01081 5.92733 6.77281 6.018C6.53481 6.10867 6.28548 6.18233 6.02481 6.239L8.40481 12.937L8.79581 14.535H8.82981L9.20381 12.903L11.3458 6.239Z" fill="#EE2F2F"/>
<path d="M21.4293 28.589C21.5539 28.7137 21.7296 28.8327 21.9563 28.946C22.1829 29.048 22.4833 29.099 22.8573 29.099C23.4806 29.099 23.9963 28.9403 24.4043 28.623C24.8236 28.2943 25.0333 27.841 25.0333 27.263C25.0333 26.8437 24.8973 26.4923 24.6253 26.209C24.3646 25.9257 24.0303 25.665 23.6223 25.427C23.2143 25.189 22.7779 24.9567 22.3133 24.73C21.8486 24.492 21.4123 24.2143 21.0043 23.897C20.5963 23.5797 20.2563 23.2057 19.9843 22.775C19.7236 22.333 19.5933 21.789 19.5933 21.143C19.5933 20.5877 19.6953 20.106 19.8993 19.698C20.1033 19.29 20.3809 18.9557 20.7323 18.695C21.0949 18.423 21.5199 18.2247 22.0073 18.1C22.4946 17.964 23.0216 17.896 23.5883 17.896C24.2796 17.896 24.9199 17.947 25.5093 18.049C26.1099 18.1397 26.6483 18.287 27.1243 18.491C27.1129 18.7177 27.0903 18.9783 27.0563 19.273C27.0336 19.5677 26.9996 19.8623 26.9543 20.157C26.9089 20.4403 26.8579 20.7123 26.8013 20.973C26.7559 21.2223 26.7106 21.432 26.6653 21.602H25.9683L25.1863 19.273C25.0503 19.205 24.8463 19.1427 24.5743 19.086C24.3136 19.0293 24.0416 19.001 23.7583 19.001C23.2823 19.001 22.8799 19.1257 22.5513 19.375C22.2226 19.6243 22.0583 19.987 22.0583 20.463C22.0583 20.8937 22.1943 21.262 22.4663 21.568C22.7383 21.8627 23.0783 22.1347 23.4863 22.384C23.8943 22.6333 24.3363 22.8827 24.8123 23.132C25.2996 23.37 25.7473 23.6477 26.1553 23.965C26.5633 24.2823 26.9033 24.6563 27.1753 25.087C27.4473 25.5063 27.5833 26.0277 27.5833 26.651C27.5833 27.7843 27.1979 28.6627 26.4273 29.286C25.6679 29.898 24.5459 30.204 23.0613 30.204C22.6986 30.204 22.3303 30.1813 21.9563 30.136C21.5936 30.0907 21.2479 30.0283 20.9193 29.949C20.5906 29.8697 20.2959 29.7847 20.0353 29.694C19.7859 29.6033 19.5989 29.507 19.4743 29.405C19.4856 29.1443 19.5139 28.8667 19.5593 28.572C19.6046 28.266 19.6499 27.9657 19.6953 27.671C19.7519 27.365 19.8086 27.076 19.8653 26.804C19.9219 26.532 19.9786 26.294 20.0353 26.09H20.7323L21.4293 28.589Z" fill="#EE2F2F"/>
<path d="M1.5 31L27.5 5" stroke="#EE2F2F" stroke-width="2"/>
</svg>
