<svg width="126" height="60" viewBox="0 0 126 60" fill="none" xmlns="http://www.w3.org/2000/svg">
<g clip-path="url(#clip0)">
<path d="M48.3692 56.6996C48.1205 56.3187 47.9962 55.684 47.9962 54.7532V42.3131C47.9962 41.0437 48.0791 39.9859 48.2863 39.2242C48.4935 38.4626 48.8666 37.7433 49.3639 37.0663L49.8199 36.4739L49.3639 35.9661H42.608L42.2764 37.0663L42.9396 37.2355C43.6856 37.4048 44.2245 37.701 44.4731 38.0395C44.7633 38.4203 44.9291 39.0127 44.9291 39.8589L34.5258 51.495V42.2708C34.5258 41.0014 34.6087 39.9859 34.8159 39.2242C35.0231 38.4626 35.3962 37.701 35.8935 37.024L36.308 36.4316L35.8935 35.9238H29.1376L28.7646 37.024L29.5106 37.1932C30.2981 37.4048 30.7955 37.701 31.0442 38.0818C31.2929 38.4626 31.4172 39.1396 31.4172 40.1128V54.457C31.4172 55.4302 31.2929 56.1072 31.0442 56.488C30.7955 56.8688 30.2567 57.165 29.4692 57.4189L28.7231 57.5881L29.0962 58.6883H36.681L36.9712 57.6728L36.3495 57.5035C35.6034 57.2496 35.106 56.9534 34.8574 56.6149C34.6087 56.2341 34.4843 55.5994 34.4843 54.7108V54.0761L44.8876 42.44V54.4993C44.8876 55.4725 44.7633 56.1495 44.5146 56.5303C44.2659 56.9111 43.7271 57.2073 42.8981 57.4189L42.235 57.5881L42.5666 58.6883H50.11L50.4416 57.6728L49.7784 57.5035C49.1152 57.3766 48.6179 57.0804 48.3692 56.6996Z" fill="white"/>
<path d="M98.106 56.6996C97.8573 56.3187 97.7329 55.684 97.7329 54.7532V42.3131C97.7329 41.0437 97.8158 39.9859 98.0231 39.2242C98.2303 38.4626 98.6033 37.7433 99.1007 37.0663L99.5566 36.4739L99.1007 35.9661H92.3448L92.0132 37.0663L92.6764 37.2355C93.4224 37.4048 93.9612 37.701 94.2099 38.0395C94.5 38.4203 94.6658 39.0127 94.6658 39.8589L84.2625 51.495V42.2708C84.2625 41.0014 84.3454 39.9859 84.5527 39.2242C84.7599 38.4626 85.1329 37.701 85.6303 37.024L86.0448 36.4316L85.6303 35.9238H78.8329L78.4599 37.024L79.206 37.1932C79.9935 37.4048 80.4908 37.701 80.7395 38.0818C80.9882 38.4626 81.1125 39.1396 81.1125 40.1128V54.457C81.1125 55.4302 80.9882 56.1072 80.7395 56.488C80.4908 56.8688 79.952 57.165 79.1645 57.4189L78.4185 57.5881L78.7915 58.6883H86.3763L86.6665 57.6728L86.0448 57.5035C85.2987 57.2496 84.8014 56.9534 84.5527 56.6149C84.304 56.2341 84.1796 55.5994 84.1796 54.7108V54.0761L94.5829 42.44V54.4993C94.5829 55.4725 94.4586 56.1495 94.2099 56.5303C93.9612 56.9111 93.4224 57.2073 92.5935 57.4189L91.9303 57.5881L92.2619 58.6883H99.8053L100.137 57.6728L99.4737 57.5035C98.852 57.3766 98.3546 57.0804 98.106 56.6996Z" fill="white"/>
<path d="M125.337 57.5459C124.591 57.292 124.093 56.9958 123.803 56.6573C123.555 56.2765 123.43 55.6418 123.43 54.7532V42.2708C123.43 41.0438 123.555 40.0282 123.762 39.2243C123.969 38.4203 124.342 37.701 124.839 36.9817L125.337 36.3893L124.839 35.8815H118.125L117.752 36.9817L118.415 37.1509C119.203 37.3625 119.741 37.6587 120.032 38.0818C120.322 38.4626 120.446 39.1397 120.446 40.1129V46.1636H110.333V42.2285C110.333 40.9591 110.416 39.9436 110.623 39.1397C110.83 38.3357 111.203 37.6164 111.701 36.9394L112.115 36.347L111.701 35.8392H104.903L104.53 36.9394L105.276 37.1086C106.064 37.3202 106.561 37.6164 106.81 37.9972C107.059 38.378 107.183 39.055 107.183 40.0705V54.457C107.183 55.4302 107.059 56.1072 106.81 56.488C106.561 56.8689 106.022 57.1651 105.235 57.4189L104.489 57.5882L104.862 58.6883H112.488L112.778 57.6728L112.157 57.5036C111.41 57.2497 110.913 56.9535 110.664 56.615C110.416 56.2342 110.291 55.5995 110.291 54.7109V48.0677H120.405V54.4993C120.405 55.4725 120.28 56.1495 120.032 56.5304C119.783 56.9112 119.244 57.2074 118.415 57.4612L117.752 57.6305L118.125 58.7306H125.668L126 57.7151L125.337 57.5459Z" fill="white"/>
<path d="M72.1599 56.6573C71.9112 56.2765 71.7869 55.6418 71.7869 54.7532V42.2709C71.7869 41.0015 71.8698 39.986 72.077 39.182C72.2843 38.3781 72.6573 37.6587 73.1547 36.9817L73.5691 36.3893L73.1547 35.8816H59.3112L58.8968 36.9817L59.6014 37.1087C61.2593 37.4049 61.9639 38.4204 61.8395 40.1129C61.4665 44.175 61.2178 47.3908 60.679 49.7603C59.3527 55.7264 57.4876 56.4881 57.4876 56.4881C57.7777 55.4302 57.8191 54.7109 57.6948 54.2032C57.1974 53.6531 56.5757 53.4415 55.9955 53.4415C54.5448 53.4415 53.3843 54.6263 53.3843 56.1073C53.3843 56.8689 53.6744 57.5459 54.1718 58.0114C54.2547 58.096 54.3376 58.1806 54.4205 58.2652C55.0422 58.8153 55.7882 59.1115 56.7001 59.1115C57.9849 59.1115 59.0626 58.5614 59.933 57.4613C60.8033 56.3611 61.5908 54.3301 62.254 51.3682C62.9172 48.4063 63.456 44.2596 63.9119 38.9281C63.9533 38.4204 64.1191 38.0819 64.4507 37.9126C64.7823 37.7434 65.2382 37.6587 65.8599 37.6587H66.7303C67.5178 37.6587 68.0566 37.828 68.3053 38.1665C68.554 38.505 68.6783 39.1397 68.6783 40.1129V54.4994C68.6783 55.4726 68.554 56.1496 68.3053 56.5304C68.0566 56.9112 67.5178 57.2074 66.7303 57.4613L66.0257 57.6305L66.3987 58.7307H73.9836L74.2737 57.7152L73.652 57.5459C72.9474 57.292 72.45 56.9958 72.1599 56.6573Z" fill="white"/>
<path d="M22.7133 40.1129C21.3455 39.0128 19.6462 38.2934 17.5738 37.9126C16.8277 37.7434 15.9988 37.6587 15.1699 37.6164C15.1699 37.6164 14.7554 37.6164 14.5481 37.6164C14.631 36.8548 14.7554 36.2201 14.9626 35.7123C15.1284 35.2046 15.4185 34.6545 15.7916 33.9775L16.1646 33.4274L15.7916 32.9197H9.94748L9.6159 34.0198L10.2791 34.2314C10.6935 34.3583 10.9837 34.6968 11.1495 35.2046C11.2738 35.7547 11.3567 36.5586 11.3981 37.5741C11.108 37.5741 10.8593 37.5741 10.5692 37.6164C8.66261 37.7434 6.96327 38.1242 5.47117 38.7589C3.77182 39.4782 2.44551 40.536 1.49222 41.8477C0.538929 43.2018 0.0830078 44.8097 0.0830078 46.6291C0.0830078 48.4909 0.580376 50.0565 1.53367 51.3259C2.48696 52.5953 3.68893 53.5262 5.13959 54.1186C6.59025 54.7109 8.66261 55.0494 10.1547 54.8802L9.6159 53.4415C7.70932 53.103 6.25867 52.3837 5.26393 51.2413C4.1863 49.9719 3.60603 48.364 3.60603 46.4176C3.60603 44.175 4.22775 42.4824 5.47117 41.2977C6.71459 40.1129 8.37248 39.4359 10.4034 39.3513C10.4449 39.3513 10.4863 39.3513 10.5277 39.3513C10.8179 39.3513 11.0251 39.3936 11.1495 39.5205C11.2738 39.6475 11.3567 39.859 11.3567 40.1552V55.8111C11.3567 56.7843 11.2324 57.419 10.9837 57.7998C10.735 58.1806 10.1962 58.4768 9.40867 58.7307L8.66261 58.8999L9.03564 60.0001H16.6205L16.9935 58.9846L16.3304 58.8153C15.5429 58.5614 15.0455 58.2652 14.7968 57.9267C14.5481 57.5459 14.4238 56.9112 14.4238 56.0226V40.1552C14.4238 39.859 14.5067 39.6898 14.631 39.5205C14.7554 39.3936 15.0041 39.309 15.3771 39.309C17.408 39.3936 19.0659 40.0706 20.3093 41.2554C21.5527 42.4401 22.1745 44.175 22.1745 46.3753C22.1745 48.3217 21.6356 49.9296 20.5166 51.1989C19.5218 52.3414 18.0712 53.0607 16.1646 53.3992L15.6258 54.8379C17.1179 55.0071 19.1902 54.6686 20.6409 54.0762C22.0916 53.4839 23.2935 52.553 24.2468 51.2836C25.2001 50.0142 25.6975 48.4486 25.6975 46.5868C25.6975 45.6982 25.5731 44.8943 25.3659 44.1327C24.9514 42.5671 24.0396 41.2131 22.7133 40.1129Z" fill="white"/>
<path d="M58.2335 7.15083C56.5341 4.78129 54.5447 3.13108 51.6433 1.81938C47.8716 0.126852 44.0999 -0.380905 40.2453 0.253791C37.0953 0.761549 34.0282 2.20019 31.0854 4.4851L32.7433 6.38919C34.3183 5.24674 36.1006 4.40048 38.0486 3.85041C40.1624 3.25802 42.1105 3.1734 43.8512 3.55421C47.8302 4.27354 49.571 7.19314 50.1512 8.25097C49.2808 7.48933 47.7887 6.77001 46.2966 6.55845C45.5506 7.27777 44.9289 8.12403 44.5144 9.18186C43.8512 10.7474 43.5611 12.4823 43.8098 13.9632C44.5144 18.4484 48.6177 21.495 52.9697 20.7757C58.9381 19.7178 61.9637 12.44 58.2335 7.15083Z" fill="white"/>
<path d="M80.9882 1.81948C78.0454 3.13119 76.0559 4.73909 74.398 7.15093C70.6678 12.4401 73.6934 19.7179 79.6204 20.7334C83.9724 21.4951 88.0757 18.4485 88.7803 13.921C89.0289 12.4401 88.7388 10.7052 88.0757 9.13965C87.6612 8.12414 87.0395 7.23556 86.2934 6.51624C84.8013 6.7278 83.3507 7.44712 82.4388 8.20876C83.0191 7.10862 84.7599 4.23133 88.7388 3.51201C90.4796 3.13119 92.4276 3.21581 94.5414 3.8082C96.5309 4.35827 98.3132 5.24684 99.8467 6.34698L101.505 4.44289C98.5618 2.15799 95.4947 0.71934 92.3447 0.211583C88.5316 -0.380801 84.7599 0.16927 80.9882 1.81948Z" fill="white"/>
</g>
<defs>
<clipPath id="clip0">
<rect width="126" height="60" fill="white"/>
</clipPath>
</defs>
</svg>
